{
  "npcs": [
    {
      "name" : "Bill",
      "imageAsset" : "npc.png",
      "interactionType": "QUESTION_DEALER",
      "expReward" : 1,
      "questionsLimit" : 2,
      "requiredItems" : [],
      "requiredExp" : 0,
      "acceptedDifficulty" : "EASY",
      "dialogueAsset" : "question_dialogue.json",
      "disappearAfterLastQuestion" : false
    },
    {
      "name" : "James",
      "imageAsset" : "npc_2.png",
      "interactionType": "QUESTION_DEALER",
      "expReward" : 2,
      "questionsLimit" : 1,
      "requiredItems" : [],
      "requiredExp" : 1,
      "acceptedDifficulty" : "EASY",
      "dialogueAsset" : "question_dialogue.json",
      "disappearAfterLastQuestion" : false
    },
    {
      "name" : "John",
      "imageAsset" : "npc.png",
      "interactionType": "QUESTION_DEALER",
      "expReward" : 1,
      "questionsLimit" : 1,
      "requiredItems" : [],
      "requiredExp" : 0,
      "acceptedDifficulty" : "EASY",
      "dialogueAsset" : "question_dialogue.json",
      "disappearAfterLastQuestion" : false
    },
    {
      "name" : "Tommy Angelo",
      "imageAsset" : "npc_2.png",
      "interactionType": "QUEST_DEALER",
      "itemsTaken": ["golden-raspberry", "health-potion"],
      "itemsReward" : ["magic-book", "health-potion", "gold", "gold", "gold"],
      "requiredItems" : [],
      "requiredExp" : 0,
      "dialogueAsset" : "quest_dialogue.json"
    },
    {
      "name" : "Ron",
      "imageAsset" : "dungeon_npc.png",
      "interactionType": "QUESTION_DEALER",
      "expReward" : 1,
      "questionsLimit" : 2,
      "requiredItems" : [],
      "requiredExp" : 0,
      "acceptedDifficulty" : "MEDIUM",
      "dialogueAsset" : "question_dialogue.json",
      "disappearAfterLastQuestion" : true
    },
    {
      "name" : "Paul",
      "imageAsset" : "dungeon_npc_2.png",
      "interactionType": "QUESTION_DEALER",
      "expReward" : 2,
      "questionsLimit" : 1,
      "requiredItems" : [],
      "requiredExp" : 0,
      "acceptedDifficulty" : "HARD",
      "dialogueAsset" : "question_dialogue.json",
      "disappearAfterLastQuestion" : false
    },
    {
      "name" : "Sonny",
      "imageAsset" : "dungeon_npc_3.png",
      "expReward" : 2,
      "interactionType": "QUESTION_DEALER",
      "questionsLimit" : 2,
      "requiredItems" : [],
      "requiredExp" : 3,
      "acceptedDifficulty" : "HARD",
      "dialogueAsset" : "question_dialogue.json",
      "disappearAfterLastQuestion" : true
    },
    {
      "name" : "Tonny",
      "imageAsset" : "dungeon_npc_4.png",
      "interactionType": "QUESTION_DEALER",
      "expReward" : 1,
      "questionsLimit" : 2,
      "requiredItems" : [],
      "requiredExp" : 0,
      "acceptedDifficulty" : "EASY",
      "dialogueAsset" : "question_dialogue.json",
      "disappearAfterLastQuestion" : true
    },
    {
      "name" : "Glump",
      "imageAsset" : "glump.png",
      "interactionType": "QUESTION_DEALER",
      "expReward" : 1,
      "questionsLimit" : 2,
      "requiredItems" : [],
      "requiredExp" : 0,
      "acceptedDifficulty" : "EASY",
      "dialogueAsset" : "question_dialogue.json",
      "disappearAfterLastQuestion" : true
    },
    {
      "name" : "Skeleton",
      "imageAsset" : "skeleton.png",
      "interactionType": "QUESTION_DEALER",
      "expReward" : 2,
      "questionsLimit" : 1,
      "requiredItems" : [],
      "requiredExp" : 0,
      "acceptedDifficulty" : "EASY",
      "dialogueAsset" : "question_dialogue.json",
      "disappearAfterLastQuestion" : true
    },
    {
      "name" : "Orc",
      "imageAsset" : "orc_npc.png",
      "interactionType": "QUESTION_DEALER",
      "expReward" : 1,
      "questionsLimit" : 1,
      "requiredItems" : [],
      "requiredExp" : 0,
      "acceptedDifficulty" : "EASY",
      "dialogueAsset" : "question_dialogue.json",
      "disappearAfterLastQuestion" : false
    },
    {
      "name" : "Rrrudy",
      "imageAsset" : "dungeon_npc_2.png",
      "interactionType": "QUEST_DEALER",
      "itemsTaken": ["kosci mamuta"],
      "itemsReward" : ["gold-coin"],
      "requiredItems" : [],
      "requiredExp" : 0,
      "dialogueAsset" : "quest_dialogue.json"
    },
    {
      "name" : "Andrei",
      "imageAsset" : "dungeon_npc_4.png",
      "interactionType": "ITEM_DEALER",
      "itemsTaken": ["gold-coin"],
      "itemsReward" : ["elixir-exp", "elixir-exp"],
      "requiredItems" : [],
      "requiredExp" : 0,
      "dialogueAsset" : "dealing_dialogue.json"
    },
    {
      "name" : "Radek",
      "imageAsset" : "dungeon_npc_2.png",
      "interactionType": "QUESTION_DEALER",
      "expReward" : 0,
      "questionsLimit" : 0,
      "requiredItems" : [],
      "requiredExp" : 0,
      "acceptedDifficulty" : "EASY",
      "dialogueAsset" : "question_dialogue.json",
      "disappearAfterLastQuestion" : false
    }
  ]
}